{
  "outline": "#1D1D1E",
  "primaryBackground": "#1F1F20",
  "secondaryBackground": "#29292a",
  "accent": "#424243",
  "highlight": "#E86414",
  "foreground": "#B4B4B4",
  "font": "fonts/robotoslab/RobotoSlab-Regular.ttf",
  "cornerRadius": 2,
  "fontSize": 15,
  "externalFont": true
}